﻿"Hersteller-Teilenummer","Hersteller","Digi-Key Teilenummer","Menge","Stückpreis","Gesamtpreis"
"CL10A475KP8NNNC","Samsung Electro-Mechanics","1276-1044-1-ND","4","0,13000","0,52 €"
"CL21A106KPFNNNE","Samsung Electro-Mechanics","1276-1052-1-ND","6","0,12000","0,72 €"
"CL21A475KOFNNNE","Samsung Electro-Mechanics","1276-1065-1-ND","2","0,15000","0,30 €"
"CL10A105KA8NNNC","Samsung Electro-Mechanics","1276-1102-1-ND","1","0,09000","0,09 €"
"CL05C120JB5NNNC","Samsung Electro-Mechanics","1276-1178-1-ND","2","0,09000","0,18 €"
"CL05A104MP5NNNC","Samsung Electro-Mechanics","1276-1443-1-ND","53","0,01700","0,90 €"
"CL31A475KPHNNNE","Samsung Electro-Mechanics","1276-1809-1-ND","3","0,20000","0,60 €"
"CL10A104KA8NNNC","Samsung Electro-Mechanics","1276-1857-1-ND","5","0,09000","0,45 €"
"CL10A226MQ8NRNE","Samsung Electro-Mechanics","1276-2868-1-ND","2","0,28000","0,56 €"
"CL21A475KPFNNNG","Samsung Electro-Mechanics","1276-6464-1-ND","2","0,12000","0,24 €"
"ACT8865QI305-T","Active-Semi International Inc.","1488-1061-1-ND","1","2,73000","2,73 €"
"RK73H1JTTD2R20F","KOA Speer Electronics, Inc.","2019-RK73H1JTTD2R20FCT-ND","3","0,09000","0,27 €"
"24AA02E48T-I/OT","Microchip Technology","24AA02E48T-I/OTCT-ND","1","0,21000","0,21 €"
"RC0603FR-071K5L","Yageo","311-1.50KHRCT-ND","5","0,09000","0,45 €"
"CC0402JRNPO9BN100","Yageo","311-1014-1-ND","1","0,09000","0,09 €"
"CC0402JRNPO9BN220","Yageo","311-1018-1-ND","2","0,09000","0,18 €"
"CC0402DRNPO9BN8R0","Yageo","311-1639-1-ND","2","0,09000","0,18 €"
"RC0603FR-072K2L","Yageo","311-2.20KHRCT-ND","2","0,09000","0,18 €"
"RC0603FR-075K62L","Yageo","311-5.62KHRCT-ND","1","0,09000","0,09 €"
"KMR223GLFG","C&K","401-1428-1-ND","2","0,59000","1,18 €"
"CL10B103KB8NNNC","Samsung Electro-Mechanics","1276-1009-1-ND","1","0,09000","0,09 €"
"MLZ1608N100LT000","TDK Corporation","445-6755-1-ND","3","0,15000","0,45 €"
"0603ZD106KAT2A","AVX Corporation","478-10766-1-ND","2","0,15000","0,30 €"
"BLM18PG181SN1D","Murata Electronics North America","490-5263-1-ND","1","0,09000","0,09 €"
"GCM155R71C473KA37D","Murata Electronics North America","490-6042-1-ND","1","0,09000","0,09 €"
"KSZ8081RNAIA-TR","Microchip Technology","576-4174-1-ND","1","1,16000","1,16 €"
"EMK107BJ225KA-T","Taiyo Yuden","587-1430-1-ND","5","0,13000","0,65 €"
"DSK-3R3H204T614-H2L","Elna America","604-1147-1-ND","1","1,75000","1,75 €"
"NX2016SA-24M-EXS00A-CS08891","NDK America, Inc.","644-1301-1-ND","1","0,57000","0,57 €"
"NX2016SA-25M-EXS00A-CS08742","NDK America, Inc.","644-1310-1-ND","1","0,57000","0,57 €"
"NX2012SA-32.768KHZ-EXS00A-MU00527","NDK America, Inc.","644-1352-1-ND","1","0,81000","0,81 €"
"742792601","Wurth Electronics Inc.","732-4659-1-ND","8","0,13000","1,04 €"
"150060RS75000","Wurth Electronics Inc.","732-4978-1-ND","1","0,13000","0,13 €"
"74438336015","Wurth Electronics Inc.","732-5695-1-ND","3","1,39000","4,17 €"
"74LVC1G08SE-7","Diodes Incorporated","74LVC1G08SE-7DICT-ND","1","0,28000","0,28 €"
"M50-3102045","Harwin Inc.","952-2857-ND","2","4,50000","9,00 €"
"M50-3530442","Harwin Inc.","952-3600-ND","1","0,14000","0,14 €"
"1775838-2","TE Connectivity AMP Connectors","A123340CT-ND","1","0,68000","0,68 €"
"CRGCQ0603F270R","TE Connectivity Passive Product","A129681CT-ND","1","0,09000","0,09 €"
"ATECC608A-MAHDA-S","Microchip Technology","ATECC608A-MAHDA-SCT-ND","1","0,69000","0,69 €"
"ATSAMA5D27C-D1G-CU","Microchip Technology","ATSAMA5D27C-D1G-CU-ND","1","12,91000","12,91 €"
"BAT54CLT1G","ON Semiconductor","BAT54CLT1GOSCT-ND","1","0,13000","0,13 €"
"BSS138-7-F","Diodes Incorporated","BSS138-FDICT-ND","1","0,18000","0,18 €"
"ERJ-3EKF4992V","Panasonic Electronic Components","P49.9KHCT-ND","2","0,09000","0,18 €"
"RB160MM-60TR","Rohm Semiconductor","RB160MM-60CT-ND","1","0,35000","0,35 €"
"RMCF0603FT100K","Stackpole Electronics Inc","RMCF0603FT100KCT-ND","1","0,09000","0,09 €"
"RMCF0603FT100R","Stackpole Electronics Inc","RMCF0603FT100RCT-ND","1","0,09000","0,09 €"
"RMCF0603FT1K00","Stackpole Electronics Inc","RMCF0603FT1K00CT-ND","4","0,09000","0,36 €"
"RMCF0603FT6K49","Stackpole Electronics Inc","RMCF0603FT6K49CT-ND","1","0,09000","0,09 €"
"RNCP0603FTD10K0","Stackpole Electronics Inc","RNCP0603FTD10K0CT-ND","9","0,09000","0,81 €"
"RNCP0603FTD1R00","Stackpole Electronics Inc","RNCP0603FTD1R00CT-ND","1","0,09000","0,09 €"
"SST26VF064B-104I/MF","Microchip Technology","SST26VF064B-104I/MF-ND","1","2,35000","2,35 €"